([('PillowV1.1.exe',
   'C:\\GIT\\Python_Collection\\CourseraPillow\\build\\PillowV1.1\\PillowV1.1.exe',
   'EXECUTABLE'),
  ('PillowV1.1.exe.manifest',
   'C:\\GIT\\Python_Collection\\CourseraPillow\\build\\PillowV1.1\\PillowV1.1.exe.manifest',
   'BINARY'),
  ('VCRUNTIME140.dll',
   'c:\\users\\ffhdxt2\\appdata\\local\\programs\\python\\python37-32\\VCRUNTIME140.dll',
   'BINARY'),
  ('python37.dll',
   'c:\\users\\ffhdxt2\\appdata\\local\\programs\\python\\python37-32\\python37.dll',
   'BINARY'),
  ('_decimal',
   'c:\\users\\ffhdxt2\\appdata\\local\\programs\\python\\python37-32\\DLLs\\_decimal.pyd',
   'EXTENSION'),
  ('_ctypes',
   'c:\\users\\ffhdxt2\\appdata\\local\\programs\\python\\python37-32\\DLLs\\_ctypes.pyd',
   'EXTENSION'),
  ('_queue',
   'c:\\users\\ffhdxt2\\appdata\\local\\programs\\python\\python37-32\\DLLs\\_queue.pyd',
   'EXTENSION'),
  ('_multiprocessing',
   'c:\\users\\ffhdxt2\\appdata\\local\\programs\\python\\python37-32\\DLLs\\_multiprocessing.pyd',
   'EXTENSION'),
  ('_ssl',
   'c:\\users\\ffhdxt2\\appdata\\local\\programs\\python\\python37-32\\DLLs\\_ssl.pyd',
   'EXTENSION'),
  ('pyexpat',
   'c:\\users\\ffhdxt2\\appdata\\local\\programs\\python\\python37-32\\DLLs\\pyexpat.pyd',
   'EXTENSION'),
  ('unicodedata',
   'c:\\users\\ffhdxt2\\appdata\\local\\programs\\python\\python37-32\\DLLs\\unicodedata.pyd',
   'EXTENSION'),
  ('_hashlib',
   'c:\\users\\ffhdxt2\\appdata\\local\\programs\\python\\python37-32\\DLLs\\_hashlib.pyd',
   'EXTENSION'),
  ('_bz2',
   'c:\\users\\ffhdxt2\\appdata\\local\\programs\\python\\python37-32\\DLLs\\_bz2.pyd',
   'EXTENSION'),
  ('_lzma',
   'c:\\users\\ffhdxt2\\appdata\\local\\programs\\python\\python37-32\\DLLs\\_lzma.pyd',
   'EXTENSION'),
  ('_socket',
   'c:\\users\\ffhdxt2\\appdata\\local\\programs\\python\\python37-32\\DLLs\\_socket.pyd',
   'EXTENSION'),
  ('select',
   'c:\\users\\ffhdxt2\\appdata\\local\\programs\\python\\python37-32\\DLLs\\select.pyd',
   'EXTENSION'),
  ('numpy.core._multiarray_tests',
   'c:\\users\\ffhdxt2\\appdata\\local\\programs\\python\\python37-32\\lib\\site-packages\\numpy\\core\\_multiarray_tests.cp37-win32.pyd',
   'EXTENSION'),
  ('numpy.core._multiarray_umath',
   'c:\\users\\ffhdxt2\\appdata\\local\\programs\\python\\python37-32\\lib\\site-packages\\numpy\\core\\_multiarray_umath.cp37-win32.pyd',
   'EXTENSION'),
  ('numpy.random.mtrand',
   'c:\\users\\ffhdxt2\\appdata\\local\\programs\\python\\python37-32\\lib\\site-packages\\numpy\\random\\mtrand.cp37-win32.pyd',
   'EXTENSION'),
  ('numpy.fft.fftpack_lite',
   'c:\\users\\ffhdxt2\\appdata\\local\\programs\\python\\python37-32\\lib\\site-packages\\numpy\\fft\\fftpack_lite.cp37-win32.pyd',
   'EXTENSION'),
  ('numpy.linalg._umath_linalg',
   'c:\\users\\ffhdxt2\\appdata\\local\\programs\\python\\python37-32\\lib\\site-packages\\numpy\\linalg\\_umath_linalg.cp37-win32.pyd',
   'EXTENSION'),
  ('numpy.linalg.lapack_lite',
   'c:\\users\\ffhdxt2\\appdata\\local\\programs\\python\\python37-32\\lib\\site-packages\\numpy\\linalg\\lapack_lite.cp37-win32.pyd',
   'EXTENSION'),
  ('PIL._imagingtk',
   'c:\\users\\ffhdxt2\\appdata\\local\\programs\\python\\python37-32\\lib\\site-packages\\PIL\\_imagingtk.cp37-win32.pyd',
   'EXTENSION'),
  ('PIL._webp',
   'c:\\users\\ffhdxt2\\appdata\\local\\programs\\python\\python37-32\\lib\\site-packages\\PIL\\_webp.cp37-win32.pyd',
   'EXTENSION'),
  ('PIL._imaging',
   'c:\\users\\ffhdxt2\\appdata\\local\\programs\\python\\python37-32\\lib\\site-packages\\PIL\\_imaging.cp37-win32.pyd',
   'EXTENSION'),
  ('libssl-1_1.dll',
   'c:\\users\\ffhdxt2\\appdata\\local\\programs\\python\\python37-32\\DLLs\\libssl-1_1.dll',
   'BINARY'),
  ('libcrypto-1_1.dll',
   'c:\\users\\ffhdxt2\\appdata\\local\\programs\\python\\python37-32\\DLLs\\libcrypto-1_1.dll',
   'BINARY'),
  ('libopenblas.JKAMQ5EVHIVCPXP2XZJB2RQPIN47S32M.gfortran-win32.dll',
   'c:\\users\\ffhdxt2\\appdata\\local\\programs\\python\\python37-32\\lib\\site-packages\\numpy\\.libs\\libopenblas.jkamq5evhivcpxp2xzjb2rqpin47s32m.gfortran-win32.dll',
   'BINARY'),
  ('base_library.zip',
   'C:\\GIT\\Python_Collection\\CourseraPillow\\build\\PillowV1.1\\base_library.zip',
   'DATA'),
  ('lib2to3\\Grammar.txt',
   'c:\\users\\ffhdxt2\\appdata\\local\\programs\\python\\python37-32\\lib\\lib2to3\\Grammar.txt',
   'DATA'),
  ('lib2to3\\tests\\data\\README',
   'c:\\users\\ffhdxt2\\appdata\\local\\programs\\python\\python37-32\\lib\\lib2to3\\tests\\data\\README',
   'DATA'),
  ('lib2to3\\PatternGrammar.txt',
   'c:\\users\\ffhdxt2\\appdata\\local\\programs\\python\\python37-32\\lib\\lib2to3\\PatternGrammar.txt',
   'DATA'),
  ('Include\\pyconfig.h',
   'c:\\users\\ffhdxt2\\appdata\\local\\programs\\python\\python37-32\\Include\\pyconfig.h',
   'DATA')],)
